^C:\USERS\DANIEL\DOCUMENTS\COS30031-2096633\09 - SPIKE - GAME STATE MANAGEMENT\ZORKISH\ZORKISH\DEBUG\ABOUT.OBJ|C:\USERS\DANIEL\DOCUMENTS\COS30031-2096633\09 - SPIKE - GAME STATE MANAGEMENT\ZORKISH\ZORKISH\DEBUG\GAMEMANAGER.OBJ|C:\USERS\DANIEL\DOCUMENTS\COS30031-2096633\09 - SPIKE - GAME STATE MANAGEMENT\ZORKISH\ZORKISH\DEBUG\GAMEPLAY.OBJ|C:\USERS\DANIEL\DOCUMENTS\COS30031-2096633\09 - SPIKE - GAME STATE MANAGEMENT\ZORKISH\ZORKISH\DEBUG\HALLOFFAME.OBJ|C:\USERS\DANIEL\DOCUMENTS\COS30031-2096633\09 - SPIKE - GAME STATE MANAGEMENT\ZORKISH\ZORKISH\DEBUG\HELP.OBJ|C:\USERS\DANIEL\DOCUMENTS\COS30031-2096633\09 - SPIKE - GAME STATE MANAGEMENT\ZORKISH\ZORKISH\DEBUG\HIGHSCORE.OBJ|C:\USERS\DANIEL\DOCUMENTS\COS30031-2096633\09 - SPIKE - GAME STATE MANAGEMENT\ZORKISH\ZORKISH\DEBUG\MAIN.OBJ|C:\USERS\DANIEL\DOCUMENTS\COS30031-2096633\09 - SPIKE - GAME STATE MANAGEMENT\ZORKISH\ZORKISH\DEBUG\MAINMENU.OBJ|C:\USERS\DANIEL\DOCUMENTS\COS30031-2096633\09 - SPIKE - GAME STATE MANAGEMENT\ZORKISH\ZORKISH\DEBUG\SELECTADVENTURE.OBJ|C:\USERS\DANIEL\DOCUMENTS\COS30031-2096633\09 - SPIKE - GAME STATE MANAGEMENT\ZORKISH\ZORKISH\DEBUG\STATE.OBJ
C:\USERS\DANIEL\DOCUMENTS\COS30031-2096633\09 - SPIKE - GAME STATE MANAGEMENT\ZORKISH\DEBUG\ZORKISH.EXE
C:\USERS\DANIEL\DOCUMENTS\COS30031-2096633\09 - SPIKE - GAME STATE MANAGEMENT\ZORKISH\DEBUG\ZORKISH.ILK
C:\USERS\DANIEL\DOCUMENTS\COS30031-2096633\09 - SPIKE - GAME STATE MANAGEMENT\ZORKISH\DEBUG\ZORKISH.PDB
