^E:\REPOSITORIES\COS30031\14 - SPIKE - COMMAND PATTERN\ZORKISH\ZORKISH\X64\DEBUG\ABOUT.OBJ|E:\REPOSITORIES\COS30031\14 - SPIKE - COMMAND PATTERN\ZORKISH\ZORKISH\X64\DEBUG\ALIASCOMMAND.OBJ|E:\REPOSITORIES\COS30031\14 - SPIKE - COMMAND PATTERN\ZORKISH\ZORKISH\X64\DEBUG\COMMAND.OBJ|E:\REPOSITORIES\COS30031\14 - SPIKE - COMMAND PATTERN\ZORKISH\ZORKISH\X64\DEBUG\COMMANDMANAGER.OBJ|E:\REPOSITORIES\COS30031\14 - SPIKE - COMMAND PATTERN\ZORKISH\ZORKISH\X64\DEBUG\DEBUGTREECOMMAND.OBJ|E:\REPOSITORIES\COS30031\14 - SPIKE - COMMAND PATTERN\ZORKISH\ZORKISH\X64\DEBUG\GAMEMANAGER.OBJ|E:\REPOSITORIES\COS30031\14 - SPIKE - COMMAND PATTERN\ZORKISH\ZORKISH\X64\DEBUG\GAMEPLAY.OBJ|E:\REPOSITORIES\COS30031\14 - SPIKE - COMMAND PATTERN\ZORKISH\ZORKISH\X64\DEBUG\HALLOFFAME.OBJ|E:\REPOSITORIES\COS30031\14 - SPIKE - COMMAND PATTERN\ZORKISH\ZORKISH\X64\DEBUG\HELP.OBJ|E:\REPOSITORIES\COS30031\14 - SPIKE - COMMAND PATTERN\ZORKISH\ZORKISH\X64\DEBUG\HELPCOMMAND.OBJ|E:\REPOSITORIES\COS30031\14 - SPIKE - COMMAND PATTERN\ZORKISH\ZORKISH\X64\DEBUG\HIGHSCORE.OBJ|E:\REPOSITORIES\COS30031\14 - SPIKE - COMMAND PATTERN\ZORKISH\ZORKISH\X64\DEBUG\INVENTORY.OBJ|E:\REPOSITORIES\COS30031\14 - SPIKE - COMMAND PATTERN\ZORKISH\ZORKISH\X64\DEBUG\INVENTORYCOMMAND.OBJ|E:\REPOSITORIES\COS30031\14 - SPIKE - COMMAND PATTERN\ZORKISH\ZORKISH\X64\DEBUG\ITEM.OBJ|E:\REPOSITORIES\COS30031\14 - SPIKE - COMMAND PATTERN\ZORKISH\ZORKISH\X64\DEBUG\LOCATION.OBJ|E:\REPOSITORIES\COS30031\14 - SPIKE - COMMAND PATTERN\ZORKISH\ZORKISH\X64\DEBUG\LOOKCOMMAND.OBJ|E:\REPOSITORIES\COS30031\14 - SPIKE - COMMAND PATTERN\ZORKISH\ZORKISH\X64\DEBUG\MAIN.OBJ|E:\REPOSITORIES\COS30031\14 - SPIKE - COMMAND PATTERN\ZORKISH\ZORKISH\X64\DEBUG\MAINMENU.OBJ|E:\REPOSITORIES\COS30031\14 - SPIKE - COMMAND PATTERN\ZORKISH\ZORKISH\X64\DEBUG\PLAYER.OBJ|E:\REPOSITORIES\COS30031\14 - SPIKE - COMMAND PATTERN\ZORKISH\ZORKISH\X64\DEBUG\SELECTADVENTURE.OBJ|E:\REPOSITORIES\COS30031\14 - SPIKE - COMMAND PATTERN\ZORKISH\ZORKISH\X64\DEBUG\STATE.OBJ|E:\REPOSITORIES\COS30031\14 - SPIKE - COMMAND PATTERN\ZORKISH\ZORKISH\X64\DEBUG\WORLD.OBJ
E:\REPOSITORIES\COS30031\14 - SPIKE - COMMAND PATTERN\ZORKISH\X64\DEBUG\ZORKISH.EXE
E:\REPOSITORIES\COS30031\14 - SPIKE - COMMAND PATTERN\ZORKISH\X64\DEBUG\ZORKISH.ILK
E:\REPOSITORIES\COS30031\14 - SPIKE - COMMAND PATTERN\ZORKISH\X64\DEBUG\ZORKISH.PDB
^C:\USERS\DANIEL\DOCUMENTS\COS30031-2096633\14 - SPIKE - COMMAND PATTERN\ZORKISH\ZORKISH\X64\DEBUG\ABOUT.OBJ|C:\USERS\DANIEL\DOCUMENTS\COS30031-2096633\14 - SPIKE - COMMAND PATTERN\ZORKISH\ZORKISH\X64\DEBUG\ALIASCOMMAND.OBJ|C:\USERS\DANIEL\DOCUMENTS\COS30031-2096633\14 - SPIKE - COMMAND PATTERN\ZORKISH\ZORKISH\X64\DEBUG\COMMAND.OBJ|C:\USERS\DANIEL\DOCUMENTS\COS30031-2096633\14 - SPIKE - COMMAND PATTERN\ZORKISH\ZORKISH\X64\DEBUG\COMMANDMANAGER.OBJ|C:\USERS\DANIEL\DOCUMENTS\COS30031-2096633\14 - SPIKE - COMMAND PATTERN\ZORKISH\ZORKISH\X64\DEBUG\DEBUGTREECOMMAND.OBJ|C:\USERS\DANIEL\DOCUMENTS\COS30031-2096633\14 - SPIKE - COMMAND PATTERN\ZORKISH\ZORKISH\X64\DEBUG\GAMEMANAGER.OBJ|C:\USERS\DANIEL\DOCUMENTS\COS30031-2096633\14 - SPIKE - COMMAND PATTERN\ZORKISH\ZORKISH\X64\DEBUG\GAMEPLAY.OBJ|C:\USERS\DANIEL\DOCUMENTS\COS30031-2096633\14 - SPIKE - COMMAND PATTERN\ZORKISH\ZORKISH\X64\DEBUG\HALLOFFAME.OBJ|C:\USERS\DANIEL\DOCUMENTS\COS30031-2096633\14 - SPIKE - COMMAND PATTERN\ZORKISH\ZORKISH\X64\DEBUG\HELP.OBJ|C:\USERS\DANIEL\DOCUMENTS\COS30031-2096633\14 - SPIKE - COMMAND PATTERN\ZORKISH\ZORKISH\X64\DEBUG\HELPCOMMAND.OBJ|C:\USERS\DANIEL\DOCUMENTS\COS30031-2096633\14 - SPIKE - COMMAND PATTERN\ZORKISH\ZORKISH\X64\DEBUG\HIGHSCORE.OBJ|C:\USERS\DANIEL\DOCUMENTS\COS30031-2096633\14 - SPIKE - COMMAND PATTERN\ZORKISH\ZORKISH\X64\DEBUG\INVENTORY.OBJ|C:\USERS\DANIEL\DOCUMENTS\COS30031-2096633\14 - SPIKE - COMMAND PATTERN\ZORKISH\ZORKISH\X64\DEBUG\INVENTORYCOMMAND.OBJ|C:\USERS\DANIEL\DOCUMENTS\COS30031-2096633\14 - SPIKE - COMMAND PATTERN\ZORKISH\ZORKISH\X64\DEBUG\ITEM.OBJ|C:\USERS\DANIEL\DOCUMENTS\COS30031-2096633\14 - SPIKE - COMMAND PATTERN\ZORKISH\ZORKISH\X64\DEBUG\LOCATION.OBJ|C:\USERS\DANIEL\DOCUMENTS\COS30031-2096633\14 - SPIKE - COMMAND PATTERN\ZORKISH\ZORKISH\X64\DEBUG\LOOKCOMMAND.OBJ|C:\USERS\DANIEL\DOCUMENTS\COS30031-2096633\14 - SPIKE - COMMAND PATTERN\ZORKISH\ZORKISH\X64\DEBUG\MAIN.OBJ|C:\USERS\DANIEL\DOCUMENTS\COS30031-2096633\14 - SPIKE - COMMAND PATTERN\ZORKISH\ZORKISH\X64\DEBUG\MAINMENU.OBJ|C:\USERS\DANIEL\DOCUMENTS\COS30031-2096633\14 - SPIKE - COMMAND PATTERN\ZORKISH\ZORKISH\X64\DEBUG\PLAYER.OBJ|C:\USERS\DANIEL\DOCUMENTS\COS30031-2096633\14 - SPIKE - COMMAND PATTERN\ZORKISH\ZORKISH\X64\DEBUG\SELECTADVENTURE.OBJ|C:\USERS\DANIEL\DOCUMENTS\COS30031-2096633\14 - SPIKE - COMMAND PATTERN\ZORKISH\ZORKISH\X64\DEBUG\STATE.OBJ|C:\USERS\DANIEL\DOCUMENTS\COS30031-2096633\14 - SPIKE - COMMAND PATTERN\ZORKISH\ZORKISH\X64\DEBUG\WORLD.OBJ
C:\USERS\DANIEL\DOCUMENTS\COS30031-2096633\14 - SPIKE - COMMAND PATTERN\ZORKISH\X64\DEBUG\ZORKISH.ILK
C:\USERS\DANIEL\DOCUMENTS\COS30031-2096633\14 - SPIKE - COMMAND PATTERN\ZORKISH\X64\DEBUG\ZORKISH.EXE
C:\USERS\DANIEL\DOCUMENTS\COS30031-2096633\14 - SPIKE - COMMAND PATTERN\ZORKISH\X64\DEBUG\ZORKISH.PDB
