^C:\USERS\DANIEL\DOCUMENTS\COS30031-2096633\02 - LAB - C++ FOR PROGRAMMERS\T02\T02\DEBUG\STDAFX.OBJ|C:\USERS\DANIEL\DOCUMENTS\COS30031-2096633\02 - LAB - C++ FOR PROGRAMMERS\T02\T02\DEBUG\T02.OBJ
C:\USERS\DANIEL\DOCUMENTS\COS30031-2096633\02 - LAB - C++ FOR PROGRAMMERS\T02\DEBUG\T02.EXE
C:\USERS\DANIEL\DOCUMENTS\COS30031-2096633\02 - LAB - C++ FOR PROGRAMMERS\T02\DEBUG\T02.ILK
C:\USERS\DANIEL\DOCUMENTS\COS30031-2096633\02 - LAB - C++ FOR PROGRAMMERS\T02\DEBUG\T02.PDB
