^C:\USERS\DANIEL\DOCUMENTS\COS30031-2096633\09 - SPIKE - GAME STATE MANAGEMENT\ZORKISH\ZORKISH\DEBUG\ABOUT.OBJ|C:\USERS\DANIEL\DOCUMENTS\COS30031-2096633\09 - SPIKE - GAME STATE MANAGEMENT\ZORKISH\ZORKISH\DEBUG\GAMEMANAGER.OBJ|C:\USERS\DANIEL\DOCUMENTS\COS30031-2096633\09 - SPIKE - GAME STATE MANAGEMENT\ZORKISH\ZORKISH\DEBUG\GAMEPLAY.OBJ|C:\USERS\DANIEL\DOCUMENTS\COS30031-2096633\09 - SPIKE - GAME STATE MANAGEMENT\ZORKISH\ZORKISH\DEBUG\HALLOFFAME.OBJ|C:\USERS\DANIEL\DOCUMENTS\COS30031-2096633\09 - SPIKE - GAME STATE MANAGEMENT\ZORKISH\ZORKISH\DEBUG\HELP.OBJ|C:\USERS\DANIEL\DOCUMENTS\COS30031-2096633\09 - SPIKE - GAME STATE MANAGEMENT\ZORKISH\ZORKISH\DEBUG\HIGHSCORE.OBJ|C:\USERS\DANIEL\DOCUMENTS\COS30031-2096633\09 - SPIKE - GAME STATE MANAGEMENT\ZORKISH\ZORKISH\DEBUG\MAIN.OBJ|C:\USERS\DANIEL\DOCUMENTS\COS30031-2096633\09 - SPIKE - GAME STATE MANAGEMENT\ZORKISH\ZORKISH\DEBUG\MAINMENU.OBJ|C:\USERS\DANIEL\DOCUMENTS\COS30031-2096633\09 - SPIKE - GAME STATE MANAGEMENT\ZORKISH\ZORKISH\DEBUG\SELECTADVENTURE.OBJ|C:\USERS\DANIEL\DOCUMENTS\COS30031-2096633\09 - SPIKE - GAME STATE MANAGEMENT\ZORKISH\ZORKISH\DEBUG\STATE.OBJ
C:\PROGRAM FILES (X86)\WINDOWS KITS\10\LIB\10.0.17134.0\UM\X86\KERNEL32.LIB
C:\PROGRAM FILES (X86)\WINDOWS KITS\10\LIB\10.0.17134.0\UM\X86\USER32.LIB
C:\PROGRAM FILES (X86)\WINDOWS KITS\10\LIB\10.0.17134.0\UM\X86\GDI32.LIB
C:\PROGRAM FILES (X86)\WINDOWS KITS\10\LIB\10.0.17134.0\UM\X86\WINSPOOL.LIB
C:\PROGRAM FILES (X86)\WINDOWS KITS\10\LIB\10.0.17134.0\UM\X86\COMDLG32.LIB
C:\PROGRAM FILES (X86)\WINDOWS KITS\10\LIB\10.0.17134.0\UM\X86\ADVAPI32.LIB
C:\PROGRAM FILES (X86)\WINDOWS KITS\10\LIB\10.0.17134.0\UM\X86\SHELL32.LIB
C:\PROGRAM FILES (X86)\WINDOWS KITS\10\LIB\10.0.17134.0\UM\X86\OLE32.LIB
C:\PROGRAM FILES (X86)\WINDOWS KITS\10\LIB\10.0.17134.0\UM\X86\OLEAUT32.LIB
C:\PROGRAM FILES (X86)\WINDOWS KITS\10\LIB\10.0.17134.0\UM\X86\UUID.LIB
C:\PROGRAM FILES (X86)\WINDOWS KITS\10\LIB\10.0.17134.0\UM\X86\ODBC32.LIB
C:\PROGRAM FILES (X86)\WINDOWS KITS\10\LIB\10.0.17134.0\UM\X86\ODBCCP32.LIB
C:\USERS\DANIEL\DOCUMENTS\COS30031-2096633\09 - SPIKE - GAME STATE MANAGEMENT\ZORKISH\ZORKISH\DEBUG\ABOUT.OBJ
C:\USERS\DANIEL\DOCUMENTS\COS30031-2096633\09 - SPIKE - GAME STATE MANAGEMENT\ZORKISH\ZORKISH\DEBUG\GAMEMANAGER.OBJ
C:\USERS\DANIEL\DOCUMENTS\COS30031-2096633\09 - SPIKE - GAME STATE MANAGEMENT\ZORKISH\ZORKISH\DEBUG\GAMEPLAY.OBJ
C:\USERS\DANIEL\DOCUMENTS\COS30031-2096633\09 - SPIKE - GAME STATE MANAGEMENT\ZORKISH\ZORKISH\DEBUG\HALLOFFAME.OBJ
C:\USERS\DANIEL\DOCUMENTS\COS30031-2096633\09 - SPIKE - GAME STATE MANAGEMENT\ZORKISH\ZORKISH\DEBUG\HELP.OBJ
C:\USERS\DANIEL\DOCUMENTS\COS30031-2096633\09 - SPIKE - GAME STATE MANAGEMENT\ZORKISH\ZORKISH\DEBUG\HIGHSCORE.OBJ
C:\USERS\DANIEL\DOCUMENTS\COS30031-2096633\09 - SPIKE - GAME STATE MANAGEMENT\ZORKISH\ZORKISH\DEBUG\MAIN.OBJ
C:\USERS\DANIEL\DOCUMENTS\COS30031-2096633\09 - SPIKE - GAME STATE MANAGEMENT\ZORKISH\ZORKISH\DEBUG\MAINMENU.OBJ
C:\USERS\DANIEL\DOCUMENTS\COS30031-2096633\09 - SPIKE - GAME STATE MANAGEMENT\ZORKISH\ZORKISH\DEBUG\SELECTADVENTURE.OBJ
C:\USERS\DANIEL\DOCUMENTS\COS30031-2096633\09 - SPIKE - GAME STATE MANAGEMENT\ZORKISH\ZORKISH\DEBUG\STATE.OBJ
C:\WINDOWS\SYSTEM32\TZRES.DLL
C:\WINDOWS\GLOBALIZATION\SORTING\SORTDEFAULT.NLS
C:\PROGRAM FILES (X86)\MICROSOFT VISUAL STUDIO\2017\ENTERPRISE\VC\TOOLS\MSVC\14.14.26428\LIB\X86\MSVCPRTD.LIB
C:\PROGRAM FILES (X86)\MICROSOFT VISUAL STUDIO\2017\ENTERPRISE\VC\TOOLS\MSVC\14.14.26428\LIB\X86\MSVCRTD.LIB
C:\PROGRAM FILES (X86)\MICROSOFT VISUAL STUDIO\2017\ENTERPRISE\VC\TOOLS\MSVC\14.14.26428\LIB\X86\OLDNAMES.LIB
C:\PROGRAM FILES (X86)\MICROSOFT VISUAL STUDIO\2017\ENTERPRISE\VC\TOOLS\MSVC\14.14.26428\LIB\X86\VCRUNTIMED.LIB
C:\PROGRAM FILES (X86)\WINDOWS KITS\10\LIB\10.0.17134.0\UCRT\X86\UCRTD.LIB
C:\PROGRAM FILES (X86)\MICROSOFT VISUAL STUDIO\2017\ENTERPRISE\VC\TOOLS\MSVC\14.14.26428\BIN\HOSTX86\X86\VCTIP.EXE
