^E:\REPOSITORIES\COS30031\23 - SPIKE - SOUND BOARD\SOUND BOARD\SOUND BOARD\DEBUG\MAIN.OBJ
/OUT:"E:\REPOSITORIES\COS30031\23 - SPIKE - SOUND BOARD\SOUND BOARD\DEBUG\SOUND BOARD.EXE" /INCREMENTAL /NOLOGO /LIBPATH:C:\DEV\SDL2\LIB\X86 SDL2.LIB SDL2MAIN.LIB SDL2_MIXER.LIB KERNEL32.LIB USER32.LIB GDI32.LIB WINSPOOL.LIB COMDLG32.LIB ADVAPI32.LIB SHELL32.LIB OLE32.LIB OLEAUT32.LIB UUID.LIB ODBC32.LIB ODBCCP32.LIB /MANIFEST /MANIFESTUAC:"level='asInvoker' uiAccess='false'" /manifest:embed /DEBUG:FASTLINK /PDB:"E:\REPOSITORIES\COS30031\23 - SPIKE - SOUND BOARD\SOUND BOARD\DEBUG\SOUND BOARD.PDB" /SUBSYSTEM:CONSOLE /TLBID:1 /DYNAMICBASE /NXCOMPAT /IMPLIB:"E:\REPOSITORIES\COS30031\23 - SPIKE - SOUND BOARD\SOUND BOARD\DEBUG\SOUND BOARD.LIB" /MACHINE:X86 DEBUG\MAIN.OBJ
^C:\USERS\DANIEL\DOCUMENTS\COS30031-2096633\23 - SPIKE - SOUND BOARD\SOUND BOARD\SOUND BOARD\DEBUG\MAIN.OBJ
/OUT:"C:\USERS\DANIEL\DOCUMENTS\COS30031-2096633\23 - SPIKE - SOUND BOARD\SOUND BOARD\DEBUG\SOUND BOARD.EXE" /INCREMENTAL /NOLOGO /LIBPATH:C:\DEV\SDL2\LIB\X86 SDL2.LIB SDL2MAIN.LIB SDL2_MIXER.LIB KERNEL32.LIB USER32.LIB GDI32.LIB WINSPOOL.LIB COMDLG32.LIB ADVAPI32.LIB SHELL32.LIB OLE32.LIB OLEAUT32.LIB UUID.LIB ODBC32.LIB ODBCCP32.LIB /MANIFEST /MANIFESTUAC:"level='asInvoker' uiAccess='false'" /manifest:embed /DEBUG:FASTLINK /PDB:"C:\USERS\DANIEL\DOCUMENTS\COS30031-2096633\23 - SPIKE - SOUND BOARD\SOUND BOARD\DEBUG\SOUND BOARD.PDB" /SUBSYSTEM:CONSOLE /TLBID:1 /DYNAMICBASE /NXCOMPAT /IMPLIB:"C:\USERS\DANIEL\DOCUMENTS\COS30031-2096633\23 - SPIKE - SOUND BOARD\SOUND BOARD\DEBUG\SOUND BOARD.LIB" /MACHINE:X86 DEBUG\MAIN.OBJ
